Datos Identificativos
IdInst;Nombre;Codigo;Provincia;Municipio;Tension Primaria;Tension Secundaria;X;Y
 
Alimentaciones
IdInst;Nombre
 
Salidas
IdInst;Posicion;Nombre
 
Transformadores
IdInst;IdTransformador;TensionAT;TensionBT;Potencia;GruposCx
 
Montaje Primario
IdInst;Posicion;Elemento;Tipo
 
Montaje Secundario
IdInst;Posicion;Elemento;Tipo
