045-C2044;Linea;1;045-3CB01;
045-C2044;Protección;2;;1
045-C2026;Linea;2;045-3DB4B;
045-C2026;Protección;1;;1
045-C2033;Linea;1;045-3DB1B;
045-C2033;Linea;3;045-3DB1C;
045-C2033;Protección;2;;1
045-C3040;Linea;2;045-3CC00;
045-C3040;Linea;3;045-3C000;
045-C3040;Linea;1;045-3CA00;
045-C3052;Linea;1;045-3DA01;
045-C3052;Linea;3;045-3DA11;
045-C3052;Linea;4;045-3DA1J;
045-C3053;Linea;1;045-3DA21;
045-C3053;Linea;2;045-3DA2A;
045-C3053;Linea;3;045-3DA2J;
045-C3030;Linea;3;045-3CB02;
045-C3030;Linea;1;045-3CB00;
045-C3030;Linea;2;045-3CB01;
045-C3089;Linea;2;045-3CA2P;
045-C3089;Linea;1;045-3CA2RA;
045-C3089;Linea;1;045-3CA2R;
045-C2038;Linea;2;045-3CB02;
045-C2038;Protección;1;;1
045-I1017;Protección;1;;1
045-I1017;Linea;4;045-3CA2Y;
045-L2005;Linea;2;045-3CA24;
045-L2005;Linea;3;045-3CA21;
045-L2005;Linea;4;045-3CA02;
045-L2005;Linea;1;045-3DB41;
045-L2005;Protección;5;;1
045-C2063;Linea;1;045-3CA2D;
045-C2063;Protección;2;;1
045-I1031;Linea;2;045-3DC00;
045-I1031;Protección;1;;1
045-C2048;Linea;1;045-3CC00;
045-C2048;Protección;2;;1
045-C2048;Protección;3;;2
045-C2014;Linea;1;045-3CA2B;
045-C2014;Protección;2;;1
045-L2016;Linea;1;045-3DB4C;
045-L2016;Protección;2;;1
045-C2037;Linea;1;045-3D000;
045-C2037;Linea;2;045-3DB00;
045-C2037;Protección;3;;1
045-C2001;Linea;3;045-3CA2V;
045-C2001;Linea;4;045-3CA2H;
045-C2001;Protección;1;;1
045-C2001;Protección;2;;2
045-C2034;Linea;3;045-3CA00;
045-C2034;Linea;1;045-3CA02;
045-C2034;Protección;2;;1
045-S2039;Linea;2;045-3CA24;
045-S2039;Linea;1;045-3CA2F;
045-S2039;Protección;3;;1
045-S2039;Protección;4;;2
045-I1023;Linea;1;045-3CA2Q;
045-I1023;Protección;1;;1
045-C2002;Linea;3;045-3CA2E;
045-C2002;Linea;1;045-3CA2F;
045-C2002;Protección;2;;1
045-I1045;Linea;2;045-3DB05;
045-I1045;Protección;1;;1
045-C2021;Linea;4;045-3CA2D;
045-C2021;Linea;2;045-3CA2C;
045-C2021;Linea;1;045-3CA21;
045-C2021;Protección;3;;1
045-C2046;Linea;1;045-3CA2X;
045-C2046;Protección;2;;1
045-I1018;Linea;1;045-3CA2W;
045-I1018;Protección;1;;1
045-C2051;Linea;2;045-3DA01;
045-C2051;Linea;1;045-3DA00;
045-C2051;Linea;3;045-3DA02;
045-C2051;Protección;4;;1
045-C2062;Linea;3;045-3DA21;
045-C2062;Linea;1;045-3DA02;
045-C2062;Protección;2;;1
045-C2022;Linea;2;045-3CA2A;
045-C2022;Protección;1;;1
045-I1047;Linea;1;045-3CA2YA;
045-I1047;Protección;1;;1
045-C2028;Linea;2;045-3CA22;
045-C2028;Protección;1;;1
045-S2024;Linea;1;045-3CA2K;
045-S2024;Linea;2;045-3CA2L;
045-S2024;Protección;3;;1
045-C2060;Linea;1;045-3CA01;
045-C2060;Protección;2;;1
045-C2041;Linea;1;045-3E000;
045-C2041;Protección;2;;1
045-I1067;Linea;2;045-3DB03;
045-I1067;Protección;1;;1
045-C2070;Linea;1;045-3DA11;
045-C2070;Linea;2;045-3DA1A;
045-C2070;Protección;3;;1
045-C2076;Linea;1;045-3DA1G;
045-C2076;Linea;2;045-3DA1F;
045-C2076;Protección;3;;1
045-C2081;Linea;1;045-3DA2C;
045-C2081;Linea;2;045-3DA2B;
045-C2081;Protección;3;;1
045-C2082;Linea;1;045-3DA2C;
045-C2082;Linea;2;045-3DA2D;
045-C2082;Protección;3;;1
045-C2085;Linea;1;045-3DA2G;
045-C2085;Linea;2;045-3DA2F;
045-C2085;Protección;3;;1
045-C2080;Linea;1;045-3DA2A;
045-C2080;Linea;2;045-3DA2B;
045-C2080;Protección;3;;1
045-C2084;Linea;1;045-3DA2F;
045-C2084;Linea;2;045-3DA2E;
045-C2084;Protección;3;;1
045-C2088;Linea;1;045-3DA2J;
045-C2088;Linea;2;045-3DA2I;
045-C2088;Protección;3;;1
045-C2087;Linea;1;045-3DA2I;
045-C2087;Linea;2;045-3DA2H;
045-C2087;Protección;3;;1
045-C2083;Linea;1;045-3DA2D;
045-C2083;Linea;2;045-3DA2E;
045-C2083;Protección;3;;1
045-C2086;Linea;1;045-3DA2G;
045-C2086;Linea;2;045-3DA2H;
045-C2086;Protección;3;;1
045-C2071;Linea;1;045-3DA1A;
045-C2071;Linea;2;045-3DA1B;
045-C2071;Protección;3;;1
045-C2072;Linea;1;045-3DA1B;
045-C2072;Linea;2;045-3DA1C;
045-C2072;Protección;3;;1
045-C2073;Linea;1;045-3DA1C;
045-C2073;Linea;2;045-3DA1D;
045-C2073;Protección;3;;1
045-C2078;Linea;1;045-3DA1I;
045-C2078;Linea;2;045-3DA1H;
045-C2078;Protección;3;;1
045-C2077;Linea;1;045-3DA1G;
045-C2077;Linea;2;045-3DA1H;
045-C2077;Protección;3;;1
045-C2075;Linea;1;045-3DA1F;
045-C2075;Linea;2;045-3DA1E;
045-C2075;Protección;3;;1
045-C2074;Linea;1;045-3DA1D;
045-C2074;Linea;2;045-3DA1E;
045-C2074;Protección;3;;1
045-C2079;Linea;2;045-3DA1I;
045-C2079;Linea;1;045-3DA1J;
045-C2079;Protección;3;;1
045-I1007;Linea;2;045-3CA2U;
045-I1007;Protección;1;;1
045-L2025;Linea;1;045-3DB4E;
045-L2025;Linea;2;045-3CA2I;
045-L2025;Protección;3;;1
045-L2025;Protección;4;;2
045-S2043;Linea;1;045-3DB4E;
045-S2043;Linea;2;045-3DB4D;
045-S2043;Protección;3;;1
045-S2043;Protección;4;;2
045-C2011;Linea;3;045-3DB41;
045-C2011;Linea;1;045-3DB04;
045-C2011;Protección;2;;1
045-S2050;Linea;3;045-3CA2N;
045-S2050;Linea;1;045-3CA2RA;
045-S2050;Protección;2;;1
045-L2012;Linea;1;045-3CA2V;
045-L2012;Linea;2;045-3CA2N;
045-L2012;Linea;3;045-3CA2M;
045-L2012;Protección;4;;1
045-C2010;Linea;4;045-3CA2K;
045-C2010;Linea;3;045-3CA2G;
045-C2010;Linea;1;045-3CA2I;
045-C2010;Protección;2;;1
045-I1020;Linea;2;045-3CA2S;
045-I1020;Protección;1;;1
045-C2032;Linea;1;045-3CA2Z;
045-C2032;Protección;2;;1
045-L2009;Linea;3;045-3DB4D;
045-L2009;Linea;2;045-3DB4A;
045-L2009;Protección;1;;1
045-L2009;Protección;4;;2
045-C2068;Linea;2;045-3DB01;
045-C2068;Linea;4;045-3DB11;
045-C2068;Linea;5;045-3DB12;
045-C2068;Protección;1;;1
045-C2068;Protección;3;;2
045-C2069;Linea;3;045-3DB1A;
045-C2069;Linea;4;045-3DB11;
045-C2069;Linea;5;045-3DB12;
045-C2069;Protección;1;;1
045-C2069;Protección;2;;2
045-I1013;Linea;1;045-3CA2T;
045-I1013;Protección;1;;1
045-I1027;Linea;1;045-3DB02;
045-I1027;Protección;1;;1
045-I1036;Linea;5;045-3EB00;
045-I1036;Protección;1;;1
045-C2064;Linea;1;045-3EA00;
045-C2064;Linea;5;045-3EA01;
045-C2064;Linea;4;045-3EA02;
045-C2064;Protección;3;;1
045-C2065;Linea;1;045-3EA01;
045-C2065;Protección;2;;1
045-C2066;Linea;1;045-3EA02;
045-C2066;Protección;3;;1
045-C2066;Protección;2;;2
045-S2042;Linea;1;045-3CA2M;
045-S2042;Linea;2;045-3CA2L;
045-S2042;Protección;3;;1
045-C2061;Linea;2;045-3CA2B;
045-C2061;Linea;1;045-3CA23;
045-C2061;Protección;3;;1
045-I1049;Linea;3;045-3DB1C;
045-I1049;Protección;1;;1
045-C2003;Linea;1;045-3CA2X;
045-C2003;Protección;3;;1
045-C2003;Linea;2;045-3CA2Y;
045-C2003;Linea;4;045-3CA2R;
